{
  "names": [
    "Undead cow"
  ],
  "attackAnim": 245,
  "attackSound": 369,
  "defenceAnim": 150,
  "defendSound": 371,
  "deathAnim": 244,
  "deathDelay": 5,
  "deathSound": 370,
  "respawnDelay": 59,
  "hitpoints": 80,
  "maxHit": 15,
  "attackStyle": "MELEE",
  "attackBonus": "CRUSH_ATT",
  "combatLevels": {
    "ATTACK": 1,
    "RANGE": 1,
    "STRENGTH": 1,
    "DEFENSE": 1,
    "MAGE": 1
  },
  "attackRange": -1,
  "attackGfx": -1,
  "attackProjectile": -1,
  "agressivenessType": "PASSIVE",
  "aggroDistance": 4,
  "deAggroDistance": -1,
  "maxDistFromSpawn": -1
}