{
  "names": [
    "Undead chicken"
  ],
  "attackAnim": 5387,
  "attackSound": 355,
  "defenceAnim": 5388,
  "defendSound": 357,
  "deathAnim": 5389,
  "deathDelay": 4,
  "deathSound": 356,
  "respawnDelay": 59,
  "hitpoints": 300,
  "maxHit": 15,
  "attackStyle": "MELEE",
  "attackBonus": "STAB_ATT",
  "combatLevels": {
    "ATTACK": 1,
    "RANGE": 1,
    "STRENGTH": 1,
    "DEFENSE": 1,
    "MAGE": 1
  },
  "attackRange": -1,
  "attackGfx": -1,
  "attackProjectile": -1,
  "agressivenessType": "PASSIVE",
  "aggroDistance": 4,
  "deAggroDistance": -1,
  "maxDistFromSpawn": -1
}